<mxfile host="app.diagrams.net" modified="2021-12-13T06:24:42.392Z" agent="5.0 (Windows NT 10.0; Win64; x64) AppleWebKit/537.36 (KHTML, like Gecko) Chrome/96.0.4664.93 Safari/537.36" etag="-Yy-0mCvxovvf_2olpxY" version="15.9.4" type="gitlab">
  <diagram name="Page-1" id="e7e014a7-5840-1c2e-5031-d8a46d1fe8dd">
    <mxGraphModel dx="1422" dy="762" grid="0" gridSize="10" guides="1" tooltips="1" connect="1" arrows="1" fold="1" page="0" pageScale="1" pageWidth="1169" pageHeight="826" background="none" math="0" shadow="0">
      <root>
        <mxCell id="0" />
        <mxCell id="1" parent="0" />
        <mxCell id="2" value="申请档案" style="swimlane;whiteSpace=wrap" parent="1" vertex="1">
          <mxGeometry x="92" y="127" width="363" height="771" as="geometry" />
        </mxCell>
        <mxCell id="5" value="" style="ellipse;shape=startState;fillColor=#000000;strokeColor=#ff0000;" parent="2" vertex="1">
          <mxGeometry x="172" y="44" width="30" height="30" as="geometry" />
        </mxCell>
        <mxCell id="6" value="" style="edgeStyle=elbowEdgeStyle;elbow=horizontal;verticalAlign=bottom;endArrow=open;endSize=8;strokeColor=#FF0000;endFill=1;rounded=0;entryX=0.5;entryY=0;entryDx=0;entryDy=0;" parent="2" source="5" target="GCH3WpDfFjN9t0Z9kr6O-53" edge="1">
          <mxGeometry x="100" y="40" as="geometry">
            <mxPoint x="115" y="94" as="targetPoint" />
          </mxGeometry>
        </mxCell>
        <mxCell id="38" value="" style="ellipse;shape=endState;fillColor=#000000;strokeColor=#ff0000" parent="2" vertex="1">
          <mxGeometry x="177" y="736" width="30" height="30" as="geometry" />
        </mxCell>
        <mxCell id="GCH3WpDfFjN9t0Z9kr6O-63" style="edgeStyle=orthogonalEdgeStyle;rounded=0;orthogonalLoop=1;jettySize=auto;html=1;exitX=0.5;exitY=1;exitDx=0;exitDy=0;entryX=0.5;entryY=0;entryDx=0;entryDy=0;" parent="2" source="GCH3WpDfFjN9t0Z9kr6O-53" target="GCH3WpDfFjN9t0Z9kr6O-59" edge="1">
          <mxGeometry relative="1" as="geometry" />
        </mxCell>
        <mxCell id="GCH3WpDfFjN9t0Z9kr6O-53" value="是否变更单" style="rhombus;whiteSpace=wrap;html=1;fillColor=#ffffc0;strokeColor=#ff0000;" parent="2" vertex="1">
          <mxGeometry x="147" y="110" width="80" height="40" as="geometry" />
        </mxCell>
        <mxCell id="GCH3WpDfFjN9t0Z9kr6O-54" value="否" style="edgeStyle=orthogonalEdgeStyle;html=1;align=left;verticalAlign=bottom;endArrow=open;endSize=8;strokeColor=#ff0000;rounded=0;exitX=0;exitY=0.5;exitDx=0;exitDy=0;" parent="2" source="GCH3WpDfFjN9t0Z9kr6O-53" target="38" edge="1">
          <mxGeometry x="-0.7883" y="-19" relative="1" as="geometry">
            <mxPoint x="371" y="165" as="targetPoint" />
            <Array as="points">
              <mxPoint x="147" y="131" />
              <mxPoint x="23" y="131" />
              <mxPoint x="23" y="751" />
            </Array>
            <mxPoint as="offset" />
          </mxGeometry>
        </mxCell>
        <mxCell id="GCH3WpDfFjN9t0Z9kr6O-59" value="是否新增申请" style="rhombus;whiteSpace=wrap;html=1;fillColor=#ffffc0;strokeColor=#ff0000;" parent="2" vertex="1">
          <mxGeometry x="147" y="207" width="80" height="43" as="geometry" />
        </mxCell>
        <mxCell id="GCH3WpDfFjN9t0Z9kr6O-60" value="是" style="edgeStyle=orthogonalEdgeStyle;html=1;align=left;verticalAlign=bottom;endArrow=open;endSize=8;strokeColor=#ff0000;rounded=0;exitX=0;exitY=0.5;exitDx=0;exitDy=0;entryX=-0.003;entryY=0.756;entryDx=0;entryDy=0;entryPerimeter=0;" parent="2" source="GCH3WpDfFjN9t0Z9kr6O-59" target="GCH3WpDfFjN9t0Z9kr6O-66" edge="1">
          <mxGeometry x="-0.6183" y="-25" relative="1" as="geometry">
            <mxPoint x="60" y="392" as="targetPoint" />
            <Array as="points">
              <mxPoint x="39" y="229" />
              <mxPoint x="39" y="593" />
            </Array>
            <mxPoint y="1" as="offset" />
          </mxGeometry>
        </mxCell>
        <mxCell id="GCH3WpDfFjN9t0Z9kr6O-61" value="否" style="edgeStyle=orthogonalEdgeStyle;html=1;align=left;verticalAlign=top;endArrow=open;endSize=8;strokeColor=#ff0000;rounded=0;" parent="2" source="GCH3WpDfFjN9t0Z9kr6O-59" edge="1">
          <mxGeometry x="-1" relative="1" as="geometry">
            <mxPoint x="187" y="284" as="targetPoint" />
          </mxGeometry>
        </mxCell>
        <mxCell id="GCH3WpDfFjN9t0Z9kr6O-69" style="edgeStyle=orthogonalEdgeStyle;rounded=0;orthogonalLoop=1;jettySize=auto;html=1;entryX=0.511;entryY=-0.012;entryDx=0;entryDy=0;entryPerimeter=0;" parent="2" source="GCH3WpDfFjN9t0Z9kr6O-66" target="GCH3WpDfFjN9t0Z9kr6O-68" edge="1">
          <mxGeometry relative="1" as="geometry" />
        </mxCell>
        <mxCell id="GCH3WpDfFjN9t0Z9kr6O-66" value="构建申请单和数据档案变更的字段&lt;br&gt;构建数据档案和申请单的变更字段（用于前端高亮）" style="html=1;" parent="2" vertex="1">
          <mxGeometry x="53" y="555" width="287" height="50" as="geometry" />
        </mxCell>
        <mxCell id="GCH3WpDfFjN9t0Z9kr6O-70" style="edgeStyle=orthogonalEdgeStyle;rounded=0;orthogonalLoop=1;jettySize=auto;html=1;entryX=0.5;entryY=0;entryDx=0;entryDy=0;" parent="2" source="GCH3WpDfFjN9t0Z9kr6O-68" target="38" edge="1">
          <mxGeometry relative="1" as="geometry" />
        </mxCell>
        <mxCell id="GCH3WpDfFjN9t0Z9kr6O-68" value="构建子表的变更json（同上）" style="html=1;" parent="2" vertex="1">
          <mxGeometry x="62" y="655" width="260" height="50" as="geometry" />
        </mxCell>
        <mxCell id="GCH3WpDfFjN9t0Z9kr6O-76" style="edgeStyle=orthogonalEdgeStyle;rounded=0;orthogonalLoop=1;jettySize=auto;html=1;entryX=0.5;entryY=0;entryDx=0;entryDy=0;" parent="2" source="GCH3WpDfFjN9t0Z9kr6O-71" target="GCH3WpDfFjN9t0Z9kr6O-72" edge="1">
          <mxGeometry relative="1" as="geometry" />
        </mxCell>
        <mxCell id="GCH3WpDfFjN9t0Z9kr6O-71" value="查询申请档案" style="html=1;" parent="2" vertex="1">
          <mxGeometry x="132" y="285" width="110" height="28" as="geometry" />
        </mxCell>
        <mxCell id="GCH3WpDfFjN9t0Z9kr6O-72" value="对比数据档案版本号是否变更" style="rhombus;whiteSpace=wrap;html=1;fillColor=#ffffc0;strokeColor=#ff0000;" parent="2" vertex="1">
          <mxGeometry x="127" y="339" width="118" height="46" as="geometry" />
        </mxCell>
        <mxCell id="GCH3WpDfFjN9t0Z9kr6O-73" value="否" style="edgeStyle=orthogonalEdgeStyle;html=1;align=left;verticalAlign=bottom;endArrow=open;endSize=8;strokeColor=#ff0000;rounded=0;" parent="2" source="GCH3WpDfFjN9t0Z9kr6O-72" edge="1">
          <mxGeometry x="0.2093" y="18" relative="1" as="geometry">
            <mxPoint x="41" y="362" as="targetPoint" />
            <mxPoint as="offset" />
          </mxGeometry>
        </mxCell>
        <mxCell id="jQ5yWAn7iMxhaPi474BS-44" style="edgeStyle=orthogonalEdgeStyle;rounded=0;orthogonalLoop=1;jettySize=auto;html=1;entryX=0.5;entryY=0;entryDx=0;entryDy=0;" parent="2" source="jQ5yWAn7iMxhaPi474BS-42" target="GCH3WpDfFjN9t0Z9kr6O-66" edge="1">
          <mxGeometry relative="1" as="geometry" />
        </mxCell>
        <mxCell id="jQ5yWAn7iMxhaPi474BS-42" value="全覆盖，将子表列表替换成数据档案的子表列表" style="rounded=0;whiteSpace=wrap;html=1;" parent="2" vertex="1">
          <mxGeometry x="98" y="459" width="196" height="60" as="geometry" />
        </mxCell>
        <mxCell id="3" value="数据档案" style="swimlane;whiteSpace=wrap" parent="1" vertex="1">
          <mxGeometry x="455" y="127" width="280" height="773" as="geometry" />
        </mxCell>
        <mxCell id="GCH3WpDfFjN9t0Z9kr6O-58" value="" style="edgeStyle=orthogonalEdgeStyle;rounded=0;orthogonalLoop=1;jettySize=auto;html=1;" parent="3" source="GCH3WpDfFjN9t0Z9kr6O-48" target="GCH3WpDfFjN9t0Z9kr6O-57" edge="1">
          <mxGeometry relative="1" as="geometry" />
        </mxCell>
        <mxCell id="GCH3WpDfFjN9t0Z9kr6O-48" value="查询自身或上游数据档案" style="html=1;" parent="3" vertex="1">
          <mxGeometry x="49" y="105" width="157" height="50" as="geometry" />
        </mxCell>
        <mxCell id="GCH3WpDfFjN9t0Z9kr6O-57" value="根据数据档案查询子表信息（文件除外）" style="whiteSpace=wrap;html=1;" parent="3" vertex="1">
          <mxGeometry x="67.5" y="206" width="120" height="47" as="geometry" />
        </mxCell>
        <mxCell id="GCH3WpDfFjN9t0Z9kr6O-55" value="是" style="edgeStyle=orthogonalEdgeStyle;html=1;align=left;verticalAlign=top;endArrow=open;endSize=8;strokeColor=#ff0000;rounded=0;" parent="1" source="GCH3WpDfFjN9t0Z9kr6O-53" target="GCH3WpDfFjN9t0Z9kr6O-48" edge="1">
          <mxGeometry x="-0.1855" y="30" relative="1" as="geometry">
            <mxPoint x="339" y="311" as="targetPoint" />
            <mxPoint as="offset" />
          </mxGeometry>
        </mxCell>
        <mxCell id="GCH3WpDfFjN9t0Z9kr6O-65" style="edgeStyle=orthogonalEdgeStyle;rounded=0;orthogonalLoop=1;jettySize=auto;html=1;entryX=1;entryY=0.5;entryDx=0;entryDy=0;" parent="1" target="GCH3WpDfFjN9t0Z9kr6O-59" edge="1">
          <mxGeometry relative="1" as="geometry">
            <mxPoint x="513" y="355" as="sourcePoint" />
          </mxGeometry>
        </mxCell>
        <mxCell id="GCH3WpDfFjN9t0Z9kr6O-78" value="档案辅助" style="swimlane;whiteSpace=wrap" parent="1" vertex="1">
          <mxGeometry x="735" y="127" width="280" height="773" as="geometry" />
        </mxCell>
        <mxCell id="jQ5yWAn7iMxhaPi474BS-39" style="edgeStyle=orthogonalEdgeStyle;rounded=0;orthogonalLoop=1;jettySize=auto;html=1;" parent="GCH3WpDfFjN9t0Z9kr6O-78" source="GCH3WpDfFjN9t0Z9kr6O-77" target="jQ5yWAn7iMxhaPi474BS-38" edge="1">
          <mxGeometry relative="1" as="geometry" />
        </mxCell>
        <mxCell id="GCH3WpDfFjN9t0Z9kr6O-77" value="刷新数据，将申请档案变更json中保存的字段&lt;br&gt;以及系统字段的变更为数据档案的值&lt;br&gt;（行政区域、大中小类，若存在相关变更，&lt;br&gt;直接使用数据档案进行字段赋值）" style="html=1;" parent="GCH3WpDfFjN9t0Z9kr6O-78" vertex="1">
          <mxGeometry x="19" y="309" width="239" height="88" as="geometry" />
        </mxCell>
        <mxCell id="jQ5yWAn7iMxhaPi474BS-41" style="edgeStyle=orthogonalEdgeStyle;rounded=0;orthogonalLoop=1;jettySize=auto;html=1;entryX=0.5;entryY=0;entryDx=0;entryDy=0;" parent="GCH3WpDfFjN9t0Z9kr6O-78" source="jQ5yWAn7iMxhaPi474BS-38" target="jQ5yWAn7iMxhaPi474BS-40" edge="1">
          <mxGeometry relative="1" as="geometry" />
        </mxCell>
        <mxCell id="jQ5yWAn7iMxhaPi474BS-38" value="检查子表是否全覆盖：&lt;br&gt;请求申请档案、申请档案的数量是否和数据档案一致，且变更来源均为数据档案的数据（数据分发、跨账套等可能导致数据来源不对应）" style="rounded=0;whiteSpace=wrap;html=1;" parent="GCH3WpDfFjN9t0Z9kr6O-78" vertex="1">
          <mxGeometry x="5" y="450" width="267" height="78" as="geometry" />
        </mxCell>
        <mxCell id="jQ5yWAn7iMxhaPi474BS-40" value="非全覆盖。刷新数据" style="rounded=0;whiteSpace=wrap;html=1;" parent="GCH3WpDfFjN9t0Z9kr6O-78" vertex="1">
          <mxGeometry x="78.5" y="561" width="120" height="38" as="geometry" />
        </mxCell>
        <mxCell id="GCH3WpDfFjN9t0Z9kr6O-74" value="是" style="edgeStyle=orthogonalEdgeStyle;html=1;align=left;verticalAlign=top;endArrow=open;endSize=8;strokeColor=#ff0000;rounded=0;entryX=0.004;entryY=0.608;entryDx=0;entryDy=0;entryPerimeter=0;" parent="1" source="GCH3WpDfFjN9t0Z9kr6O-72" target="GCH3WpDfFjN9t0Z9kr6O-77" edge="1">
          <mxGeometry x="-0.2699" y="20" relative="1" as="geometry">
            <mxPoint x="278" y="545" as="targetPoint" />
            <mxPoint as="offset" />
          </mxGeometry>
        </mxCell>
        <mxCell id="jQ5yWAn7iMxhaPi474BS-43" style="edgeStyle=orthogonalEdgeStyle;rounded=0;orthogonalLoop=1;jettySize=auto;html=1;entryX=1;entryY=0.5;entryDx=0;entryDy=0;" parent="1" source="jQ5yWAn7iMxhaPi474BS-38" target="jQ5yWAn7iMxhaPi474BS-42" edge="1">
          <mxGeometry relative="1" as="geometry" />
        </mxCell>
        <mxCell id="TX850oFawWnff4eczQi0-38" style="edgeStyle=orthogonalEdgeStyle;rounded=0;orthogonalLoop=1;jettySize=auto;html=1;" edge="1" parent="1" source="jQ5yWAn7iMxhaPi474BS-40" target="GCH3WpDfFjN9t0Z9kr6O-66">
          <mxGeometry relative="1" as="geometry" />
        </mxCell>
      </root>
    </mxGraphModel>
  </diagram>
</mxfile>
