<mxfile host="app.diagrams.net" modified="2021-12-10T06:00:33.843Z" agent="5.0 (Windows NT 10.0; Win64; x64) AppleWebKit/537.36 (KHTML, like Gecko) Chrome/96.0.4664.93 Safari/537.36" etag="nVdaTnhCYeLSWqysggHx" version="15.9.4" type="gitlab">
  <diagram id="kgpKYQtTHZ0yAKxKKP6v" name="Page-1">
    <mxGraphModel dx="1293" dy="693" grid="0" gridSize="10" guides="1" tooltips="1" connect="1" arrows="1" fold="1" page="1" pageScale="1" pageWidth="850" pageHeight="1100" math="0" shadow="0">
      <root>
        <mxCell id="0" />
        <mxCell id="1" parent="0" />
        <mxCell id="3nuBFxr9cyL0pnOWT2aG-1" value="经销商申请管理&#xa;AgencyApBiz" style="shape=umlLifeline;perimeter=lifelinePerimeter;container=1;collapsible=0;recursiveResize=0;rounded=0;shadow=0;strokeWidth=1;" parent="1" vertex="1">
          <mxGeometry x="120" y="80" width="100" height="653" as="geometry" />
        </mxCell>
        <mxCell id="GXnSROL8HCaiOqrldOXr-7" value="" style="html=1;points=[];perimeter=orthogonalPerimeter;" parent="3nuBFxr9cyL0pnOWT2aG-1" vertex="1">
          <mxGeometry x="47" y="202" width="10" height="14" as="geometry" />
        </mxCell>
        <mxCell id="GXnSROL8HCaiOqrldOXr-8" value="检查变更单参数" style="edgeStyle=orthogonalEdgeStyle;html=1;align=left;spacingLeft=2;endArrow=block;rounded=0;entryX=1;entryY=0;" parent="3nuBFxr9cyL0pnOWT2aG-1" target="GXnSROL8HCaiOqrldOXr-7" edge="1">
          <mxGeometry relative="1" as="geometry">
            <mxPoint x="50" y="181" as="sourcePoint" />
            <Array as="points">
              <mxPoint x="80" y="181" />
            </Array>
          </mxGeometry>
        </mxCell>
        <mxCell id="Pn6Gmsqx3rcDo4XKahG6-5" value="" style="html=1;points=[];perimeter=orthogonalPerimeter;" vertex="1" parent="3nuBFxr9cyL0pnOWT2aG-1">
          <mxGeometry x="47" y="131" width="10" height="22" as="geometry" />
        </mxCell>
        <mxCell id="Pn6Gmsqx3rcDo4XKahG6-6" value="检查档案参数" style="edgeStyle=orthogonalEdgeStyle;html=1;align=left;spacingLeft=2;endArrow=block;rounded=0;entryX=1;entryY=0;" edge="1" target="Pn6Gmsqx3rcDo4XKahG6-5" parent="3nuBFxr9cyL0pnOWT2aG-1">
          <mxGeometry relative="1" as="geometry">
            <mxPoint x="52" y="111" as="sourcePoint" />
            <Array as="points">
              <mxPoint x="82" y="111" />
            </Array>
          </mxGeometry>
        </mxCell>
        <mxCell id="fI7oniVQk6fPRHYVv3Nd-8" value="" style="shape=umlLifeline;participant=umlActor;perimeter=lifelinePerimeter;whiteSpace=wrap;html=1;container=1;collapsible=0;recursiveResize=0;verticalAlign=top;spacingTop=36;outlineConnect=0;" parent="1" vertex="1">
          <mxGeometry x="60" y="80" width="20" height="653" as="geometry" />
        </mxCell>
        <mxCell id="3nuBFxr9cyL0pnOWT2aG-3" value="新增" style="verticalAlign=bottom;startArrow=oval;endArrow=block;startSize=8;shadow=0;strokeWidth=1;" parent="1" target="3nuBFxr9cyL0pnOWT2aG-1" edge="1">
          <mxGeometry relative="1" as="geometry">
            <mxPoint x="80" y="150" as="sourcePoint" />
            <mxPoint x="140" y="150" as="targetPoint" />
          </mxGeometry>
        </mxCell>
        <mxCell id="_RKvtvBXSEi3I1XYfJq4-5" value="经销商申请档案服务&lt;br&gt;AgencyApService" style="shape=umlLifeline;perimeter=lifelinePerimeter;whiteSpace=wrap;html=1;container=1;collapsible=0;recursiveResize=0;outlineConnect=0;rounded=0;sketch=0;fontSize=12;" parent="1" vertex="1">
          <mxGeometry x="284" y="80" width="141" height="674" as="geometry" />
        </mxCell>
        <mxCell id="_RKvtvBXSEi3I1XYfJq4-15" value="银行申请服务&lt;br&gt;InvoiceApService" style="shape=umlLifeline;perimeter=lifelinePerimeter;whiteSpace=wrap;html=1;container=1;collapsible=0;recursiveResize=0;outlineConnect=0;rounded=0;sketch=0;fontSize=12;" parent="1" vertex="1">
          <mxGeometry x="467" y="80" width="118" height="789" as="geometry" />
        </mxCell>
        <mxCell id="_RKvtvBXSEi3I1XYfJq4-16" value="联系人申请服务&lt;br&gt;ContactsApService" style="shape=umlLifeline;perimeter=lifelinePerimeter;whiteSpace=wrap;html=1;container=1;collapsible=0;recursiveResize=0;outlineConnect=0;rounded=0;sketch=0;fontSize=12;" parent="1" vertex="1">
          <mxGeometry x="626" y="80" width="118" height="789" as="geometry" />
        </mxCell>
        <mxCell id="_RKvtvBXSEi3I1XYfJq4-17" value="附件申请服务&lt;br&gt;FileApService" style="shape=umlLifeline;perimeter=lifelinePerimeter;whiteSpace=wrap;html=1;container=1;collapsible=0;recursiveResize=0;outlineConnect=0;rounded=0;sketch=0;fontSize=12;" parent="1" vertex="1">
          <mxGeometry x="795" y="80" width="106" height="789" as="geometry" />
        </mxCell>
        <mxCell id="_RKvtvBXSEi3I1XYfJq4-18" value="业务日志服务&lt;br&gt;BusLogLadderTaskUtil" style="shape=umlLifeline;perimeter=lifelinePerimeter;whiteSpace=wrap;html=1;container=1;collapsible=0;recursiveResize=0;outlineConnect=0;rounded=0;sketch=0;fontSize=12;" parent="1" vertex="1">
          <mxGeometry x="1119" y="80" width="134" height="789" as="geometry" />
        </mxCell>
        <mxCell id="_RKvtvBXSEi3I1XYfJq4-23" value="更新结果" style="html=1;verticalAlign=bottom;endArrow=open;dashed=1;endSize=8;rounded=1;sketch=0;fontSize=12;curved=0;exitX=0.534;exitY=0.678;exitDx=0;exitDy=0;exitPerimeter=0;" parent="1" target="fI7oniVQk6fPRHYVv3Nd-8" edge="1" source="3nuBFxr9cyL0pnOWT2aG-1">
          <mxGeometry relative="1" as="geometry">
            <mxPoint x="170" y="543" as="sourcePoint" />
            <mxPoint x="90" y="543" as="targetPoint" />
          </mxGeometry>
        </mxCell>
        <mxCell id="_RKvtvBXSEi3I1XYfJq4-14" value="更新申请档案信息" style="html=1;verticalAlign=bottom;endArrow=block;rounded=1;sketch=0;fontSize=12;curved=0;exitX=0.506;exitY=0.57;exitDx=0;exitDy=0;exitPerimeter=0;" parent="1" target="_RKvtvBXSEi3I1XYfJq4-5" edge="1" source="3nuBFxr9cyL0pnOWT2aG-1">
          <mxGeometry width="80" relative="1" as="geometry">
            <mxPoint x="170" y="321" as="sourcePoint" />
            <mxPoint x="250" y="306" as="targetPoint" />
          </mxGeometry>
        </mxCell>
        <mxCell id="_RKvtvBXSEi3I1XYfJq4-20" value="查询联系人信息，并转为联系人数据档案" style="html=1;verticalAlign=bottom;endArrow=block;rounded=1;sketch=0;fontSize=12;curved=0;exitX=0.488;exitY=0.402;exitDx=0;exitDy=0;exitPerimeter=0;" parent="1" source="3nuBFxr9cyL0pnOWT2aG-1" target="_RKvtvBXSEi3I1XYfJq4-16" edge="1">
          <mxGeometry width="80" relative="1" as="geometry">
            <mxPoint x="173" y="413" as="sourcePoint" />
            <mxPoint x="253" y="413" as="targetPoint" />
          </mxGeometry>
        </mxCell>
        <mxCell id="_RKvtvBXSEi3I1XYfJq4-21" value="查询附件信息，并转为附件数据档案" style="html=1;verticalAlign=bottom;endArrow=block;rounded=1;sketch=0;fontSize=12;curved=0;exitX=0.515;exitY=0.455;exitDx=0;exitDy=0;exitPerimeter=0;" parent="1" source="3nuBFxr9cyL0pnOWT2aG-1" target="_RKvtvBXSEi3I1XYfJq4-17" edge="1">
          <mxGeometry width="80" relative="1" as="geometry">
            <mxPoint x="171" y="464" as="sourcePoint" />
            <mxPoint x="251" y="464" as="targetPoint" />
          </mxGeometry>
        </mxCell>
        <mxCell id="Pn6Gmsqx3rcDo4XKahG6-1" value="&lt;span&gt;经销商数据档案管理&lt;/span&gt;&lt;br style=&quot;padding: 0px ; margin: 0px&quot;&gt;&lt;span&gt;AgencyBiz&lt;/span&gt;" style="shape=umlLifeline;perimeter=lifelinePerimeter;whiteSpace=wrap;html=1;container=1;collapsible=0;recursiveResize=0;outlineConnect=0;" vertex="1" parent="1">
          <mxGeometry x="945" y="80" width="122" height="811" as="geometry" />
        </mxCell>
        <mxCell id="_RKvtvBXSEi3I1XYfJq4-22" value="提交日志" style="html=1;verticalAlign=bottom;endArrow=block;rounded=1;sketch=0;fontSize=12;curved=0;exitX=0.488;exitY=0.63;exitDx=0;exitDy=0;exitPerimeter=0;" parent="1" target="_RKvtvBXSEi3I1XYfJq4-18" edge="1" source="3nuBFxr9cyL0pnOWT2aG-1">
          <mxGeometry width="80" relative="1" as="geometry">
            <mxPoint x="174" y="504" as="sourcePoint" />
            <mxPoint x="254" y="504" as="targetPoint" />
          </mxGeometry>
        </mxCell>
        <mxCell id="_RKvtvBXSEi3I1XYfJq4-19" value="查询申请银行信息，并转为银行数据档案" style="html=1;verticalAlign=bottom;endArrow=block;rounded=1;sketch=0;fontSize=12;curved=0;exitX=0.488;exitY=0.363;exitDx=0;exitDy=0;exitPerimeter=0;" parent="1" target="_RKvtvBXSEi3I1XYfJq4-15" edge="1" source="3nuBFxr9cyL0pnOWT2aG-1">
          <mxGeometry width="80" relative="1" as="geometry">
            <mxPoint x="171" y="364" as="sourcePoint" />
            <mxPoint x="251" y="364" as="targetPoint" />
          </mxGeometry>
        </mxCell>
        <mxCell id="Pn6Gmsqx3rcDo4XKahG6-4" value="查询档案信息" style="html=1;verticalAlign=bottom;endArrow=block;rounded=0;exitX=0.479;exitY=0.142;exitDx=0;exitDy=0;exitPerimeter=0;" edge="1" parent="1" source="3nuBFxr9cyL0pnOWT2aG-1" target="_RKvtvBXSEi3I1XYfJq4-5">
          <mxGeometry width="80" relative="1" as="geometry">
            <mxPoint x="174" y="172" as="sourcePoint" />
            <mxPoint x="247" y="172" as="targetPoint" />
          </mxGeometry>
        </mxCell>
        <mxCell id="Pn6Gmsqx3rcDo4XKahG6-14" value="保存或更新经销商数据档案" style="html=1;verticalAlign=bottom;endArrow=block;rounded=0;exitX=0.479;exitY=0.512;exitDx=0;exitDy=0;exitPerimeter=0;" edge="1" parent="1" source="3nuBFxr9cyL0pnOWT2aG-1" target="Pn6Gmsqx3rcDo4XKahG6-1">
          <mxGeometry width="80" relative="1" as="geometry">
            <mxPoint x="187" y="461" as="sourcePoint" />
            <mxPoint x="251" y="472" as="targetPoint" />
          </mxGeometry>
        </mxCell>
      </root>
    </mxGraphModel>
  </diagram>
</mxfile>
