<mxfile host="app.diagrams.net" modified="2021-12-10T02:10:35.499Z" agent="5.0 (Windows NT 10.0; Win64; x64) AppleWebKit/537.36 (KHTML, like Gecko) Chrome/96.0.4664.93 Safari/537.36" etag="ySYwBfPKQcOniwmDtcNc" version="15.9.4" type="gitlab">
  <diagram id="kgpKYQtTHZ0yAKxKKP6v" name="Page-1">
    <mxGraphModel dx="1422" dy="762" grid="0" gridSize="10" guides="1" tooltips="1" connect="1" arrows="1" fold="1" page="1" pageScale="1" pageWidth="850" pageHeight="1100" math="0" shadow="0">
      <root>
        <mxCell id="0" />
        <mxCell id="1" parent="0" />
        <mxCell id="3nuBFxr9cyL0pnOWT2aG-1" value="经销商申请管理&#xa;AgencyApBiz" style="shape=umlLifeline;perimeter=lifelinePerimeter;container=1;collapsible=0;recursiveResize=0;rounded=0;shadow=0;strokeWidth=1;" parent="1" vertex="1">
          <mxGeometry x="120" y="80" width="100" height="653" as="geometry" />
        </mxCell>
        <mxCell id="pb9rq7oVdSdUGOBiPljP-59" value="查询档案信息" style="html=1;verticalAlign=bottom;endArrow=block;rounded=0;" edge="1" parent="3nuBFxr9cyL0pnOWT2aG-1" target="pb9rq7oVdSdUGOBiPljP-58">
          <mxGeometry width="80" relative="1" as="geometry">
            <mxPoint x="52" y="92" as="sourcePoint" />
            <mxPoint x="132" y="92" as="targetPoint" />
          </mxGeometry>
        </mxCell>
        <mxCell id="pb9rq7oVdSdUGOBiPljP-60" value="" style="html=1;points=[];perimeter=orthogonalPerimeter;" vertex="1" parent="3nuBFxr9cyL0pnOWT2aG-1">
          <mxGeometry x="46" y="124" width="10" height="23" as="geometry" />
        </mxCell>
        <mxCell id="pb9rq7oVdSdUGOBiPljP-61" value="检查档案能否被删除" style="edgeStyle=orthogonalEdgeStyle;html=1;align=left;spacingLeft=2;endArrow=block;rounded=0;entryX=1;entryY=0;" edge="1" target="pb9rq7oVdSdUGOBiPljP-60" parent="3nuBFxr9cyL0pnOWT2aG-1">
          <mxGeometry relative="1" as="geometry">
            <mxPoint x="51" y="104" as="sourcePoint" />
            <Array as="points">
              <mxPoint x="81" y="104" />
            </Array>
          </mxGeometry>
        </mxCell>
        <mxCell id="fI7oniVQk6fPRHYVv3Nd-8" value="" style="shape=umlLifeline;participant=umlActor;perimeter=lifelinePerimeter;whiteSpace=wrap;html=1;container=1;collapsible=0;recursiveResize=0;verticalAlign=top;spacingTop=36;outlineConnect=0;" parent="1" vertex="1">
          <mxGeometry x="60" y="80" width="20" height="653" as="geometry" />
        </mxCell>
        <mxCell id="3nuBFxr9cyL0pnOWT2aG-3" value="新增" style="verticalAlign=bottom;startArrow=oval;endArrow=block;startSize=8;shadow=0;strokeWidth=1;" parent="1" target="3nuBFxr9cyL0pnOWT2aG-1" edge="1">
          <mxGeometry relative="1" as="geometry">
            <mxPoint x="80" y="150" as="sourcePoint" />
            <mxPoint x="140" y="150" as="targetPoint" />
          </mxGeometry>
        </mxCell>
        <mxCell id="_RKvtvBXSEi3I1XYfJq4-15" value="银行申请服务&lt;br&gt;InvoiceApService" style="shape=umlLifeline;perimeter=lifelinePerimeter;whiteSpace=wrap;html=1;container=1;collapsible=0;recursiveResize=0;outlineConnect=0;rounded=0;sketch=0;fontSize=12;" parent="1" vertex="1">
          <mxGeometry x="472" y="80" width="118" height="789" as="geometry" />
        </mxCell>
        <mxCell id="_RKvtvBXSEi3I1XYfJq4-16" value="联系人申请服务&lt;br&gt;ContactsApService" style="shape=umlLifeline;perimeter=lifelinePerimeter;whiteSpace=wrap;html=1;container=1;collapsible=0;recursiveResize=0;outlineConnect=0;rounded=0;sketch=0;fontSize=12;" parent="1" vertex="1">
          <mxGeometry x="638" y="80" width="118" height="789" as="geometry" />
        </mxCell>
        <mxCell id="_RKvtvBXSEi3I1XYfJq4-17" value="附件申请服务&lt;br&gt;FileApService" style="shape=umlLifeline;perimeter=lifelinePerimeter;whiteSpace=wrap;html=1;container=1;collapsible=0;recursiveResize=0;outlineConnect=0;rounded=0;sketch=0;fontSize=12;" parent="1" vertex="1">
          <mxGeometry x="805" y="80" width="106" height="789" as="geometry" />
        </mxCell>
        <mxCell id="_RKvtvBXSEi3I1XYfJq4-18" value="业务日志服务&lt;br&gt;BusLogLadderTaskUtil" style="shape=umlLifeline;perimeter=lifelinePerimeter;whiteSpace=wrap;html=1;container=1;collapsible=0;recursiveResize=0;outlineConnect=0;rounded=0;sketch=0;fontSize=12;" parent="1" vertex="1">
          <mxGeometry x="951" y="80" width="134" height="789" as="geometry" />
        </mxCell>
        <mxCell id="_RKvtvBXSEi3I1XYfJq4-23" value="删除结果" style="html=1;verticalAlign=bottom;endArrow=open;dashed=1;endSize=8;rounded=1;sketch=0;fontSize=12;curved=0;exitX=0.52;exitY=0.541;exitDx=0;exitDy=0;exitPerimeter=0;" parent="1" target="fI7oniVQk6fPRHYVv3Nd-8" edge="1" source="3nuBFxr9cyL0pnOWT2aG-1">
          <mxGeometry relative="1" as="geometry">
            <mxPoint x="170" y="543" as="sourcePoint" />
            <mxPoint x="90" y="543" as="targetPoint" />
          </mxGeometry>
        </mxCell>
        <mxCell id="_RKvtvBXSEi3I1XYfJq4-14" value="删除申请档案信息" style="html=1;verticalAlign=bottom;endArrow=block;rounded=1;sketch=0;fontSize=12;curved=0;exitX=0.51;exitY=0.263;exitDx=0;exitDy=0;exitPerimeter=0;" parent="1" target="pb9rq7oVdSdUGOBiPljP-58" edge="1" source="3nuBFxr9cyL0pnOWT2aG-1">
          <mxGeometry width="80" relative="1" as="geometry">
            <mxPoint x="189" y="319" as="sourcePoint" />
            <mxPoint x="389" y="314" as="targetPoint" />
          </mxGeometry>
        </mxCell>
        <mxCell id="_RKvtvBXSEi3I1XYfJq4-20" value="删除联系人信息" style="html=1;verticalAlign=bottom;endArrow=block;rounded=1;sketch=0;fontSize=12;curved=0;exitX=0.54;exitY=0.368;exitDx=0;exitDy=0;exitPerimeter=0;" parent="1" source="3nuBFxr9cyL0pnOWT2aG-1" target="_RKvtvBXSEi3I1XYfJq4-16" edge="1">
          <mxGeometry width="80" relative="1" as="geometry">
            <mxPoint x="173" y="413" as="sourcePoint" />
            <mxPoint x="253" y="413" as="targetPoint" />
          </mxGeometry>
        </mxCell>
        <mxCell id="_RKvtvBXSEi3I1XYfJq4-21" value="删除附件信息" style="html=1;verticalAlign=bottom;endArrow=block;rounded=1;sketch=0;fontSize=12;curved=0;exitX=0.49;exitY=0.429;exitDx=0;exitDy=0;exitPerimeter=0;" parent="1" source="3nuBFxr9cyL0pnOWT2aG-1" target="_RKvtvBXSEi3I1XYfJq4-17" edge="1">
          <mxGeometry width="80" relative="1" as="geometry">
            <mxPoint x="171" y="464" as="sourcePoint" />
            <mxPoint x="251" y="464" as="targetPoint" />
          </mxGeometry>
        </mxCell>
        <mxCell id="pb9rq7oVdSdUGOBiPljP-58" value="经销商申请档案服务&lt;br&gt;AgencyApService" style="shape=umlLifeline;perimeter=lifelinePerimeter;whiteSpace=wrap;html=1;container=1;collapsible=0;recursiveResize=0;outlineConnect=0;" vertex="1" parent="1">
          <mxGeometry x="292" y="80" width="133" height="705" as="geometry" />
        </mxCell>
        <mxCell id="_RKvtvBXSEi3I1XYfJq4-19" value="删除银行信息" style="html=1;verticalAlign=bottom;endArrow=block;rounded=1;sketch=0;fontSize=12;curved=0;exitX=0.51;exitY=0.312;exitDx=0;exitDy=0;exitPerimeter=0;" parent="1" target="_RKvtvBXSEi3I1XYfJq4-15" edge="1" source="3nuBFxr9cyL0pnOWT2aG-1">
          <mxGeometry width="80" relative="1" as="geometry">
            <mxPoint x="171" y="364" as="sourcePoint" />
            <mxPoint x="251" y="364" as="targetPoint" />
          </mxGeometry>
        </mxCell>
        <mxCell id="_RKvtvBXSEi3I1XYfJq4-22" value="提交日志" style="html=1;verticalAlign=bottom;endArrow=block;rounded=1;sketch=0;fontSize=12;curved=0;exitX=0.5;exitY=0.493;exitDx=0;exitDy=0;exitPerimeter=0;" parent="1" target="_RKvtvBXSEi3I1XYfJq4-18" edge="1" source="3nuBFxr9cyL0pnOWT2aG-1">
          <mxGeometry width="80" relative="1" as="geometry">
            <mxPoint x="174" y="504" as="sourcePoint" />
            <mxPoint x="254" y="504" as="targetPoint" />
          </mxGeometry>
        </mxCell>
      </root>
    </mxGraphModel>
  </diagram>
</mxfile>
