<mxfile host="app.diagrams.net" modified="2021-12-10T07:28:04.554Z" agent="5.0 (Windows NT 10.0; Win64; x64) AppleWebKit/537.36 (KHTML, like Gecko) Chrome/96.0.4664.93 Safari/537.36" etag="LCUqJHhHI1iQNqdiq3Rs" version="15.9.4" type="gitlab">
  <diagram id="kgpKYQtTHZ0yAKxKKP6v" name="Page-1">
    <mxGraphModel dx="1422" dy="762" grid="0" gridSize="10" guides="1" tooltips="1" connect="1" arrows="1" fold="1" page="1" pageScale="1" pageWidth="850" pageHeight="1100" math="0" shadow="0">
      <root>
        <mxCell id="0" />
        <mxCell id="1" parent="0" />
        <mxCell id="3nuBFxr9cyL0pnOWT2aG-1" value="售后网点请管理&#xa;CsunitApBiz" style="shape=umlLifeline;perimeter=lifelinePerimeter;container=1;collapsible=0;recursiveResize=0;rounded=0;shadow=0;strokeWidth=1;" parent="1" vertex="1">
          <mxGeometry x="120" y="80" width="100" height="653" as="geometry" />
        </mxCell>
        <mxCell id="_RKvtvBXSEi3I1XYfJq4-19" value="保存银行信息" style="html=1;verticalAlign=bottom;endArrow=block;rounded=1;sketch=0;fontSize=12;curved=0;" parent="3nuBFxr9cyL0pnOWT2aG-1" target="_RKvtvBXSEi3I1XYfJq4-15" edge="1">
          <mxGeometry width="80" relative="1" as="geometry">
            <mxPoint x="51" y="284" as="sourcePoint" />
            <mxPoint x="131" y="284" as="targetPoint" />
          </mxGeometry>
        </mxCell>
        <mxCell id="_RKvtvBXSEi3I1XYfJq4-20" value="保存联系人信息" style="html=1;verticalAlign=bottom;endArrow=block;rounded=1;sketch=0;fontSize=12;curved=0;" parent="3nuBFxr9cyL0pnOWT2aG-1" target="_RKvtvBXSEi3I1XYfJq4-16" edge="1">
          <mxGeometry width="80" relative="1" as="geometry">
            <mxPoint x="53" y="333" as="sourcePoint" />
            <mxPoint x="133" y="333" as="targetPoint" />
          </mxGeometry>
        </mxCell>
        <mxCell id="_RKvtvBXSEi3I1XYfJq4-21" value="保存附件信息" style="html=1;verticalAlign=bottom;endArrow=block;rounded=1;sketch=0;fontSize=12;curved=0;" parent="3nuBFxr9cyL0pnOWT2aG-1" target="_RKvtvBXSEi3I1XYfJq4-17" edge="1">
          <mxGeometry width="80" relative="1" as="geometry">
            <mxPoint x="51" y="384" as="sourcePoint" />
            <mxPoint x="131" y="384" as="targetPoint" />
          </mxGeometry>
        </mxCell>
        <mxCell id="_RKvtvBXSEi3I1XYfJq4-24" value="" style="html=1;points=[];perimeter=orthogonalPerimeter;rounded=0;sketch=0;fontSize=12;" parent="3nuBFxr9cyL0pnOWT2aG-1" vertex="1">
          <mxGeometry x="48" y="194" width="10" height="40" as="geometry" />
        </mxCell>
        <mxCell id="_RKvtvBXSEi3I1XYfJq4-25" value="变更单构建变更数据" style="edgeStyle=orthogonalEdgeStyle;html=1;align=left;spacingLeft=2;endArrow=block;rounded=0;entryX=1;entryY=0;sketch=0;fontSize=12;curved=0;" parent="3nuBFxr9cyL0pnOWT2aG-1" target="_RKvtvBXSEi3I1XYfJq4-24" edge="1">
          <mxGeometry relative="1" as="geometry">
            <mxPoint x="53" y="174" as="sourcePoint" />
            <Array as="points">
              <mxPoint x="83" y="174" />
            </Array>
          </mxGeometry>
        </mxCell>
        <mxCell id="3nuBFxr9cyL0pnOWT2aG-5" value="参数校验&#xa;CmdmHighQueryUtil" style="shape=umlLifeline;perimeter=lifelinePerimeter;container=1;collapsible=0;recursiveResize=0;rounded=0;shadow=0;strokeWidth=1;" parent="1" vertex="1">
          <mxGeometry x="246" y="80" width="127" height="649" as="geometry" />
        </mxCell>
        <mxCell id="3nuBFxr9cyL0pnOWT2aG-8" value="校验主数据参数" style="verticalAlign=bottom;endArrow=block;shadow=0;strokeWidth=1;fontSize=12;exitX=0.48;exitY=0.138;exitDx=0;exitDy=0;exitPerimeter=0;" parent="1" source="3nuBFxr9cyL0pnOWT2aG-1" target="3nuBFxr9cyL0pnOWT2aG-5" edge="1">
          <mxGeometry relative="1" as="geometry">
            <mxPoint x="175" y="160.0000000000001" as="sourcePoint" />
            <mxPoint x="345" y="160.0000000000001" as="targetPoint" />
          </mxGeometry>
        </mxCell>
        <mxCell id="fI7oniVQk6fPRHYVv3Nd-8" value="" style="shape=umlLifeline;participant=umlActor;perimeter=lifelinePerimeter;whiteSpace=wrap;html=1;container=1;collapsible=0;recursiveResize=0;verticalAlign=top;spacingTop=36;outlineConnect=0;" parent="1" vertex="1">
          <mxGeometry x="60" y="80" width="20" height="653" as="geometry" />
        </mxCell>
        <mxCell id="3nuBFxr9cyL0pnOWT2aG-3" value="新增" style="verticalAlign=bottom;startArrow=oval;endArrow=block;startSize=8;shadow=0;strokeWidth=1;" parent="1" target="3nuBFxr9cyL0pnOWT2aG-1" edge="1">
          <mxGeometry relative="1" as="geometry">
            <mxPoint x="80" y="150" as="sourcePoint" />
            <mxPoint x="140" y="150" as="targetPoint" />
          </mxGeometry>
        </mxCell>
        <mxCell id="_RKvtvBXSEi3I1XYfJq4-1" value="系统服务&lt;br&gt;SysRemote" style="shape=umlLifeline;perimeter=lifelinePerimeter;whiteSpace=wrap;html=1;container=1;collapsible=0;recursiveResize=0;outlineConnect=0;rounded=0;sketch=0;fontSize=12;" parent="1" vertex="1">
          <mxGeometry x="534" y="80" width="100" height="661" as="geometry" />
        </mxCell>
        <mxCell id="_RKvtvBXSEi3I1XYfJq4-2" value="获取编码、单号" style="html=1;verticalAlign=bottom;endArrow=block;rounded=1;sketch=0;fontSize=12;curved=0;exitX=0.517;exitY=0.231;exitDx=0;exitDy=0;exitPerimeter=0;" parent="1" source="3nuBFxr9cyL0pnOWT2aG-1" target="_RKvtvBXSEi3I1XYfJq4-1" edge="1">
          <mxGeometry width="80" relative="1" as="geometry">
            <mxPoint x="175" y="205" as="sourcePoint" />
            <mxPoint x="254" y="227" as="targetPoint" />
          </mxGeometry>
        </mxCell>
        <mxCell id="_RKvtvBXSEi3I1XYfJq4-5" value="售后网点申请档案服务&lt;br&gt;CsunitApService" style="shape=umlLifeline;perimeter=lifelinePerimeter;whiteSpace=wrap;html=1;container=1;collapsible=0;recursiveResize=0;outlineConnect=0;rounded=0;sketch=0;fontSize=12;" parent="1" vertex="1">
          <mxGeometry x="654" y="80" width="141" height="674" as="geometry" />
        </mxCell>
        <mxCell id="_RKvtvBXSEi3I1XYfJq4-9" value="客户档案服务&lt;br&gt;CustomerDataFileBiz" style="shape=umlLifeline;perimeter=lifelinePerimeter;whiteSpace=wrap;html=1;container=1;collapsible=0;recursiveResize=0;outlineConnect=0;rounded=0;sketch=0;fontSize=12;" parent="1" vertex="1">
          <mxGeometry x="391" y="80" width="126" height="686" as="geometry" />
        </mxCell>
        <mxCell id="_RKvtvBXSEi3I1XYfJq4-13" value="设置行政区域、级联分类" style="html=1;verticalAlign=bottom;endArrow=block;rounded=1;sketch=0;fontSize=12;curved=0;exitX=0.5;exitY=0.181;exitDx=0;exitDy=0;exitPerimeter=0;" parent="1" source="3nuBFxr9cyL0pnOWT2aG-1" target="_RKvtvBXSEi3I1XYfJq4-9" edge="1">
          <mxGeometry width="80" relative="1" as="geometry">
            <mxPoint x="575" y="364" as="sourcePoint" />
            <mxPoint x="655" y="364" as="targetPoint" />
          </mxGeometry>
        </mxCell>
        <mxCell id="_RKvtvBXSEi3I1XYfJq4-15" value="银行申请服务&lt;br&gt;InvoiceApService" style="shape=umlLifeline;perimeter=lifelinePerimeter;whiteSpace=wrap;html=1;container=1;collapsible=0;recursiveResize=0;outlineConnect=0;rounded=0;sketch=0;fontSize=12;" parent="1" vertex="1">
          <mxGeometry x="820" y="80" width="118" height="789" as="geometry" />
        </mxCell>
        <mxCell id="_RKvtvBXSEi3I1XYfJq4-16" value="联系人申请服务&lt;br&gt;ContactsApService" style="shape=umlLifeline;perimeter=lifelinePerimeter;whiteSpace=wrap;html=1;container=1;collapsible=0;recursiveResize=0;outlineConnect=0;rounded=0;sketch=0;fontSize=12;" parent="1" vertex="1">
          <mxGeometry x="964" y="80" width="118" height="789" as="geometry" />
        </mxCell>
        <mxCell id="_RKvtvBXSEi3I1XYfJq4-17" value="附件申请服务&lt;br&gt;FileApService" style="shape=umlLifeline;perimeter=lifelinePerimeter;whiteSpace=wrap;html=1;container=1;collapsible=0;recursiveResize=0;outlineConnect=0;rounded=0;sketch=0;fontSize=12;" parent="1" vertex="1">
          <mxGeometry x="1102" y="80" width="106" height="789" as="geometry" />
        </mxCell>
        <mxCell id="_RKvtvBXSEi3I1XYfJq4-23" value="新增结果" style="html=1;verticalAlign=bottom;endArrow=open;dashed=1;endSize=8;rounded=1;sketch=0;fontSize=12;curved=0;exitX=0.47;exitY=0.614;exitDx=0;exitDy=0;exitPerimeter=0;" parent="1" source="3nuBFxr9cyL0pnOWT2aG-1" target="fI7oniVQk6fPRHYVv3Nd-8" edge="1">
          <mxGeometry relative="1" as="geometry">
            <mxPoint x="170" y="543" as="sourcePoint" />
            <mxPoint x="90" y="543" as="targetPoint" />
          </mxGeometry>
        </mxCell>
        <mxCell id="_RKvtvBXSEi3I1XYfJq4-14" value="保存申请档案信息" style="html=1;verticalAlign=bottom;endArrow=block;rounded=1;sketch=0;fontSize=12;curved=0;exitX=0.508;exitY=0.38;exitDx=0;exitDy=0;exitPerimeter=0;" parent="1" source="3nuBFxr9cyL0pnOWT2aG-1" target="_RKvtvBXSEi3I1XYfJq4-5" edge="1">
          <mxGeometry width="80" relative="1" as="geometry">
            <mxPoint x="170" y="306" as="sourcePoint" />
            <mxPoint x="250" y="306" as="targetPoint" />
          </mxGeometry>
        </mxCell>
      </root>
    </mxGraphModel>
  </diagram>
</mxfile>
